OTU_Id	SRR5892145	SRR5892146	SRR5892148	SRR5892149	SRR5892150	SRR5892151	SRR5892152	SRR5892153	SRR5892154	SRR5892155	SRR5892156	SRR5892157	SRR5892158	SRR5892159	SRR5892160	SRR5892161	SRR5892162	SRR5892163	SRR5892164	SRR5892165	SRR5892166	SRR5892167	SRR5892168	SRR5892169	SRR5892170	SRR5892171	SRR5892172	SRR5892173	SRR5892174	SRR5892175	SRR5892176	SRR5892177	SRR5892178	SRR5892179
k__Archaea;p__Crenarchaeota	0.0	0.0	0.0	0.0	8e-05	0.00012	2e-05	2e-05	0.0	0.00011	0.00023	0.0	3e-05	0.00016	4e-05	0.0	4e-05	3e-05	0.0	0.00017	0.00013	0.0	0.0	0.0	1e-05	0.00016	6e-05	0.0	0.00018	7e-05	0.0	0.0	2e-05	6e-05
k__Archaea;p__Euryarchaeota	0.0	0.0	0.0	0.00639	0.00019	4e-05	5e-05	0.0	0.0	0.00015	0.00011	0.0	4e-05	0.00011	3e-05	0.02462	1e-05	1e-05	7e-05	0.00024	0.00018	0.00025	4e-05	9e-05	0.0004	0.00032	1e-05	0.00037	0.00014	0.00051	0.00235	0.0	8e-05	9e-05
k__Bacteria;Other	0.00457	0.00297	0.02634	0.09781	0.00853	0.00716	0.01549	0.00499	0.01381	0.02125	0.01177	0.00044	0.00173	0.00178	0.01155	0.02901	0.00426	0.02468	0.00716	0.00986	0.01059	0.00511	0.00694	0.00582	0.03923	0.03624	0.00465	0.00951	0.02728	0.02307	0.05503	0.00603	0.01802	0.01696
k__Bacteria;p__AD3	0.01699	0.0041	0.01194	0.00731	0.02091	0.01741	0.02284	0.02322	0.01633	0.00512	0.00736	0.00063	0.01434	0.00092	0.04936	0.0006	0.00135	0.0016	0.00265	0.01273	0.0246	0.0131	0.02015	0.02226	0.00177	0.00078	0.01155	0.00022	0.00189	0.02169	0.00887	0.00812	0.00093	0.01052
k__Bacteria;p__Acidobacteria	0.35893	0.3504	0.47825	0.60671	0.35194	0.38472	0.17121	0.22058	0.27075	0.06807	0.05115	0.009	0.12689	0.00464	0.25396	0.03543	0.01388	0.02241	0.04604	0.18005	0.26818	0.21945	0.34579	0.1274	0.04533	0.05045	0.08634	0.01123	0.02618	0.20251	0.52856	0.49091	0.04918	0.10467
k__Bacteria;p__Actinobacteria	0.24206	0.21707	0.14813	0.12404	0.21137	0.13045	0.10621	0.33654	0.1172	0.11106	0.10062	0.02087	0.12272	0.02743	0.19067	0.06152	0.0289	0.30516	0.03699	0.33097	0.07452	0.26681	0.29167	0.16219	0.24193	0.04563	0.19521	0.02077	0.09482	0.10567	0.16125	0.20853	0.04937	0.13622
k__Bacteria;p__Armatimonadetes	0.0039	0.00633	0.00739	0.00184	0.002	0.00139	0.00143	0.00068	0.00148	0.00023	0.00024	0.0	0.00041	0.0	0.00114	7e-05	0.0	6e-05	0.00042	0.00119	0.00133	0.00093	0.00027	0.00022	0.00063	0.00067	0.00136	0.0	0.00035	0.0009	0.00578	0.0021	0.00024	0.00215
k__Bacteria;p__BRC1	0.0	0.0	0.0	0.0002	5e-05	2e-05	4e-05	0.0	0.00099	1e-05	0.0	0.0	0.0	0.0	5e-05	5e-05	0.0	0.0	0.0	0.0001	0.00027	5e-05	0.0	0.0	0.0002	0.0	1e-05	0.0	0.0	0.0002	0.0004	0.0	8e-05	6e-05
k__Bacteria;p__Bacteroidetes	0.01854	0.02956	0.02022	0.00503	0.03357	0.06472	0.13267	0.0231	0.07759	0.02387	0.05048	0.00062	0.00609	0.00241	0.05002	0.15589	0.00249	0.0052	0.02348	0.05666	0.10132	0.01604	0.00954	0.08411	0.12919	0.12187	0.06418	0.00933	0.03944	0.11488	0.0145	0.01652	0.22103	0.11233
k__Bacteria;p__Caldiserica	0.00305	1e-05	0.00548	0.00021	0.00477	0.00896	0.00734	0.00029	0.00457	0.56229	0.32297	0.00375	0.00017	0.11729	0.12508	0.40168	0.1028	0.18597	0.01009	0.00743	0.0034	0.00232	0.00034	0.00952	0.11845	0.55847	0.0271	0.21083	0.5839	0.00409	0.0	0.00453	0.0131	0.0151
k__Bacteria;p__Chlamydiae	0.0	0.00381	0.0	0.0003	0.00035	0.00037	0.00022	0.00019	0.0	3e-05	0.00029	0.0	0.00016	0.0	0.00022	0.0	0.0	0.0	0.0	4e-05	0.00014	0.00029	0.00015	0.00022	0.00137	0.00016	0.00077	0.0	3e-05	0.0	0.00041	0.00048	7e-05	0.00064
k__Bacteria;p__Chlorobi	0.00392	0.00012	0.00182	0.00435	0.00148	0.00155	0.00169	0.00582	0.00303	0.00137	0.00268	0.0	0.00032	0.00035	0.00061	0.0	0.0	0.00089	0.00039	0.00864	0.00342	0.00049	4e-05	0.00138	0.0017	6e-05	0.00076	0.00042	0.00049	0.00377	0.00248	0.00112	0.00032	0.0037
k__Bacteria;p__Chloroflexi	0.00819	0.00015	0.00093	7e-05	0.01051	0.00771	0.00838	0.01764	0.02569	0.00856	0.01381	0.0002	0.00229	0.00107	0.0122	0.00544	0.00103	0.00838	0.00326	0.01602	0.02302	0.0006	0.0	0.00252	0.01866	0.01806	0.00969	0.00284	0.01564	0.03762	0.00091	0.00223	0.00585	0.02832
k__Bacteria;p__Cyanobacteria	0.00294	0.01503	0.00547	0.00122	0.01067	0.01573	0.00422	0.00243	0.00314	0.00216	0.00446	0.01077	0.01784	0.0	0.00292	0.00459	0.00028	0.00076	0.00116	0.00077	0.0026	0.00206	0.00641	0.00392	0.00093	0.00049	0.0043	0.00126	0.0029	0.00172	0.0031	0.00171	0.00171	0.00311
k__Bacteria;p__Elusimicrobia	0.0027	0.00239	0.0	0.00016	0.00216	0.00532	0.00383	0.00262	0.00482	0.00062	0.00207	0.0002	0.00026	7e-05	0.00066	0.0	0.00012	0.0004	0.00046	0.00394	0.00616	0.00059	0.00034	0.00232	0.00154	2e-05	0.0033	5e-05	0.00067	0.00492	0.00084	0.00099	0.01713	0.00246
k__Bacteria;p__FBP	0.0	0.00018	0.0	0.0	1e-05	7e-05	2e-05	0.0	0.0	0.0	0.0	0.0	0.0	0.0	1e-05	0.0	0.0	2e-05	4e-05	0.0	0.0	0.0	0.0	5e-05	1e-05	0.0	2e-05	0.0	0.0	0.0	0.00045	0.0	5e-05	0.0
k__Bacteria;p__FCPU426	0.00057	0.00037	0.0	0.00031	0.00018	0.00012	0.0005	3e-05	0.0	0.00014	0.00012	4e-05	4e-05	0.0	0.00031	0.0	0.0	2e-05	0.0	4e-05	5e-05	4e-05	0.00011	0.00011	6e-05	0.0	7e-05	0.0	3e-05	0.00015	0.00083	0.0	0.0	0.0001
k__Bacteria;p__Fibrobacteres	0.00105	0.0	0.0	0.0	0.00061	0.00087	0.00139	0.00172	0.00198	0.0006	0.0009	0.0	0.00021	0.0	0.0001	5e-05	0.00013	4e-05	0.00098	0.00055	0.00401	0.00042	3e-05	0.00064	0.00024	0.00048	0.00058	0.0	0.0	0.0013	0.0	0.0	0.0052	0.00053
k__Bacteria;p__Firmicutes	0.00704	0.00011	0.0037	0.00259	0.00593	0.03831	0.08541	0.00742	0.02172	0.12381	0.16812	0.93204	0.55552	0.7939	0.06497	0.20064	0.81174	0.40643	0.77125	0.0172	0.04396	0.31737	0.19137	0.32207	0.0615	0.08561	0.17196	0.32973	0.12125	0.03192	0.00289	0.00462	0.19481	0.02447
k__Bacteria;p__GN02	0.00064	0.0	0.0	0.0	0.00076	0.00038	0.00261	0.00053	0.0	0.0	0.0002	0.0	0.0	0.0	0.0	0.0	0.0	0.0	4e-05	0.00057	0.00134	0.0	0.0	0.00023	0.00037	0.0	0.00014	0.0	7e-05	0.00084	0.0	0.00054	0.00404	0.00575
k__Bacteria;p__Gemmatimonadetes	0.00915	2e-05	0.00176	0.00022	0.00998	0.00328	0.01362	0.01012	0.00857	0.00313	0.00724	0.00042	0.00333	0.0	0.00791	0.0	0.0	0.00163	0.003	0.01136	0.01051	0.00313	0.0005	0.00616	0.01324	0.00015	0.01584	0.0	0.00228	0.01222	0.00045	0.00336	0.00105	0.02192
k__Bacteria;p__Lentisphaerae	0.0	0.0	0.0	0.0	0.00011	0.00017	8e-05	0.00013	0.001	0.00028	0.00034	0.0	0.0	0.0	3e-05	0.0	0.00016	0.0	0.0001	0.00044	0.00058	4e-05	0.0	0.00011	0.00071	0.00183	2e-05	0.0	6e-05	0.00074	0.0	0.0	0.00026	0.00053
k__Bacteria;p__NC10	0.0	0.0	0.0	0.0	3e-05	0.0	0.0	0.0	0.00086	0.0	0.00013	0.0	0.0	0.0	0.0	0.0	0.0	0.0	0.0	0.0	5e-05	0.0	0.0	0.0	0.0	0.0	0.0	0.0	0.0	0.00059	0.0	0.0	0.0	0.0
k__Bacteria;p__NKB19	0.0	0.0	0.0	0.0	2e-05	0.0	0.0	0.0	0.0	0.0	0.0	0.0	0.0	0.0	0.0	0.0	0.0	0.0	0.0	0.0	1e-05	0.0	0.0	0.0	0.0	0.0	0.0	0.0	0.0	9e-05	0.0	0.0	0.0	1e-05
k__Bacteria;p__Nitrospirae	0.0	0.0	0.0	0.0	0.00011	0.0001	0.00016	4e-05	0.00044	8e-05	0.00081	0.0	0.00036	0.0	0.00021	0.0	0.0	0.0	0.00012	0.00065	0.00349	1e-05	0.0	4e-05	0.0	0.0	0.00021	0.00031	0.0	0.00218	0.0	0.0	0.0	0.00053
k__Bacteria;p__OD1	0.0	0.00021	0.0	0.0001	0.00508	0.00854	0.00665	0.00155	0.00381	0.00148	0.00343	2e-05	0.00057	0.0	0.00062	0.0	0.0004	0.00056	0.00178	0.00786	0.00717	0.00292	0.00028	0.00269	0.00123	0.00013	0.00628	0.00015	0.0014	0.00765	0.0	0.0006	0.00872	0.02078
k__Bacteria;p__OP11	0.0	0.0	0.0	0.0	0.00125	0.00121	0.00405	0.0	0.00146	0.00032	0.00052	0.0	0.0	0.0	0.00014	0.0	0.0	4e-05	0.00094	0.00068	0.00446	0.00027	0.0	0.0001	0.00367	0.0	9e-05	0.00059	0.00053	0.00469	0.0	0.0	0.00364	0.0062
k__Bacteria;p__OP3	0.0	0.00029	0.0	0.00014	9e-05	7e-05	0.00011	0.0	0.0	4e-05	2e-05	3e-05	0.00011	0.0	0.00014	0.0	0.0	3e-05	0.0	0.0	4e-05	4e-05	0.00011	6e-05	0.00013	3e-05	3e-05	0.0	0.0	4e-05	0.00046	0.0	1e-05	1e-05
k__Bacteria;p__OP8	0.0	0.0	0.0	0.0	0.0	0.0	0.0	0.0	0.0	3e-05	7e-05	0.0	0.0	0.0	0.0	0.0	0.0	0.0	0.0	0.0	0.0	0.0	0.0	0.0	0.0	0.0	0.0	0.00093	0.00021	0.0	0.0	0.0	1e-05	0.0
k__Bacteria;p__OP9	0.0	0.0	0.0	0.0	1e-05	0.0	0.0	0.0	0.0	8e-05	3e-05	0.0	0.0	0.0	0.0	0.0	0.0	5e-05	0.0	0.0	0.0	0.0	0.0	0.0	0.0	0.00021	0.0	0.0	0.00872	0.0	0.0	0.0	1e-05	3e-05
k__Bacteria;p__Planctomycetes	0.00567	0.00419	0.01649	0.00467	0.00597	0.00134	0.00223	0.00168	0.00504	0.00113	0.00073	0.00012	0.00486	0.0002	0.00878	0.00547	0.0	0.00049	0.00032	0.00103	0.00174	0.00272	0.0029	0.00139	0.00104	0.00286	0.00153	0.00036	0.00028	0.00147	0.01313	0.00933	0.00069	0.0011
k__Bacteria;p__Proteobacteria	0.21552	0.20672	0.17073	0.06748	0.23217	0.1831	0.22894	0.23485	0.25831	0.04024	0.15491	0.01814	0.10952	0.04742	0.13656	0.069	0.03082	0.02331	0.06305	0.24039	0.23313	0.09325	0.09802	0.17174	0.28542	0.06416	0.29481	0.02291	0.05071	0.22655	0.10696	0.18435	0.2756	0.32409
k__Bacteria;p__SR1	0.0	0.0	0.00088	0.0	0.0003	0.00033	0.00011	0.00016	0.0086	8e-05	0.00052	0.0	0.0	0.0	0.0	0.0	0.0	4e-05	9e-05	0.00037	0.00103	5e-05	0.0	0.0	7e-05	0.0	0.0	0.0	0.0	0.0139	0.0	0.00113	0.00038	0.00086
k__Bacteria;p__Spirochaetes	0.0	0.0	0.0	0.0	0.00024	2e-05	0.00016	0.0	0.00057	0.0	0.00085	0.0	0.00015	0.0	0.0	0.0	0.0	1e-05	0.00018	0.00036	0.00353	0.0	0.0	0.0	0.0	0.0	1e-05	0.0	6e-05	0.00433	0.0	0.0005	8e-05	0.00095
k__Bacteria;p__TM6	0.00067	0.00395	0.00175	0.00062	0.00035	0.00087	0.0003	0.00076	0.00048	8e-05	0.00157	0.00103	0.00031	0.0	0.00015	0.0	0.0	0.00015	0.00011	0.00023	0.00041	0.00064	0.00025	0.00039	0.00026	0.00031	0.00057	0.00066	0.00025	0.0002	0.0013	0.0	0.00015	0.00046
k__Bacteria;p__TM7	0.01279	0.05454	0.01474	0.00439	0.01739	0.07054	0.11163	0.0151	0.02602	0.00219	0.01919	0.00026	0.00184	0.00099	0.00822	0.00077	0.00019	0.00493	0.0153	0.03646	0.03305	0.01351	0.00362	0.05195	0.0181	0.00317	0.04703	0.3756	0.00527	0.03306	0.01182	0.00655	0.11456	0.08612
k__Bacteria;p__Tenericutes	0.0	0.0	0.0	0.0	1e-05	0.0003	7e-05	0.0001	0.0	0.0	0.0	0.0	0.0	0.0	0.0	0.0	0.0	0.0	0.0	0.00034	0.00011	0.0	0.0	0.0	0.0001	0.0	5e-05	0.0	3e-05	0.00013	0.0	0.0	0.00205	3e-05
k__Bacteria;p__Verrucomicrobia	0.06391	0.06327	0.06305	0.05622	0.04142	0.03653	0.05295	0.08483	0.09225	0.01991	0.06751	0.0013	0.02246	0.00126	0.05946	0.00492	0.00034	0.00487	0.00833	0.04876	0.12212	0.03211	0.01767	0.01387	0.00962	0.00654	0.02862	0.00176	0.0137	0.13171	0.05726	0.03351	0.00871	0.05629
k__Bacteria;p__WPS-2	0.0172	0.03421	0.02093	0.00342	0.01847	0.00611	0.0126	0.00269	0.02846	0.00127	0.00361	0.00012	0.00737	0.0	0.01383	0.00025	0.00106	0.00177	0.00164	0.0017	0.00769	0.00511	0.00342	0.00609	0.0017	0.00086	0.02274	0.0001	0.00114	0.00206	0.01681	0.01224	0.00107	0.00697
k__Bacteria;p__WS4	0.0	0.0	0.0	0.0042	0.00018	9e-05	0.00019	0.0	0.0	4e-05	0.0	0.0	6e-05	0.0	5e-05	0.0	0.0	0.0	0.0	0.00028	0.00041	9e-05	4e-05	0.0	0.00055	0.00019	6e-05	0.0	0.0	0.00036	0.00316	0.0	0.00029	0.00091
k__Bacteria;p__WS5	0.0	0.0	0.0	0.0	0.00058	0.0019	0.00025	9e-05	0.0005	0.00014	0.00094	0.0	0.0	0.0	0.0	0.0	0.0	1e-05	0.00049	0.00039	0.00071	0.00019	0.0	0.0002	0.00017	0.0	5e-05	7e-05	0.0001	0.00148	0.0	0.0	0.00128	0.00388
k__Bacteria;p__WS6	0.0	0.0	0.0	0.0	0.00017	8e-05	0.00033	8e-05	0.00053	3e-05	0.0	0.0	0.0	0.0	0.0	0.0	0.0	5e-05	7e-05	0.00153	0.00054	0.0	0.0	0.00014	0.00047	9e-05	0.0	0.0	0.0	0.00072	0.0	0.0	0.00021	0.00109
